<?xml version="1.0" encoding="UTF-8"?>
<svg width="76px" height="76px" viewBox="0 0 76 76" version="1.1" xmlns="http://www.w3.org/2000/svg" xmlns:xlink="http://www.w3.org/1999/xlink">
    <title>928E5678-8914-4604-B8FD-AC097FFAFBCC@1,5x</title>
    <g id="Desktop" stroke="none" stroke-width="1" fill="none" fill-rule="evenodd">
        <g id="home" transform="translate(-1354.000000, -3281.000000)" fill="#4BA1DB" fill-rule="nonzero">
            <g id="Sec-04" transform="translate(85.000000, 2998.000000)">
                <polygon id="Shape" points="1269 283 1345 283 1345 359 1269 359"></polygon>
            </g>
        </g>
    </g>
</svg>